{
  "type": "service_account",
  "project_id": "data-analyst-319914",
  "private_key_id": "e0151312e8c2a14909ac2120b26f093a0c010c31",
  "private_key": "-----BEGIN PRIVATE KEY-----\nMIIEvgIBADANBgkqhkiG9w0BAQEFAASCBKgwggSkAgEAAoIBAQDNhOgWwXHWf95A\nu6hlM5iaYIUgk1Vhz53Et7GMcA8tTW2FB8wTqJuzFEr8ifJY4udq6lKhu7yP6UTY\nk80sK+cnzOzIc0qlFZMAT6ecpxqaF4aIOhsSSRETcmmIIcewDcBB8f4qFY32wQo3\nQmLsqKjYKXxOkoZUQWtYNDUqBzhanop50bR4lZHdo/zQVxq/yMKiCvyvQEpkpvTF\nfApPwucn6D71+a1apc7M16q5NxJMCcbb0LPq6bCYEin+FAl1zWMFIHfV+Ku0uVif\nEQXf3LpYQfnxLHC7lQQQJGFCrxkl6JAaRaJrmvseprVDNhw9hccH+MAyMEfw1+nA\ncJs4CDO1AgMBAAECggEAINuBlpfFWTeWwy8taEakPHQ3fIKJqUpd7SQ4Mt18k6/Y\nFWdueWsgv3P8XB063XqjaHy/isN+zVxMSTryF8CKI5sX9SE3myaUmr1hbQJrVpzx\nwYhWqSj83ajSVfUenZdJOFHV4okRKhTpSvXmZnM9kVeqm85Bwyk1XgP0xvwiBpye\nac0yGUa9M5sIDzIsFVlSCNPfV7gcOGMDovSase7omA+ohPYg90UMC55fj/glOoua\nibM9M0LfF5xgBVJiq4Flu4UiRvk+nGaDC/EzIiWvUHqBmqTo2NS7NKQI5pMGcVY0\n59vbDhvv+F7Es42UkZKFDDkNZlNJbUSz0eetda5AOQKBgQDodCuwQ/xVBGTDh+iZ\nOvWPiuJ0KQ2JNjlgcYcSUiht28oXcaJcfIJBLzW0Dc4V4JU/AkFFdCXPMPy2s9r8\nIhEiBDDIpZ5ImDCtrTBRJxmvP5U/g/qv/amSF75lZkFa47CGf6U8Szf53n8own+2\nhYZAQuVtqUj66S02Kc2ZEvjSuQKBgQDiVkk6vwBxK0MOQFhKLZ7vSTkn1eey4daC\n48x3wSqh4X5KADYdFDVLvbb+5rDnrxU9sfj1eRpTuUz7k7TiKDmjCS+B79TyHNel\n2HrjBoYC5r0Ve8+Wqa//3dJovioZzJu6tYn3NwrLcTWmoC/qqNqTOw8E7V3H/56B\n5t+2/K+a3QKBgQDg6b5332AgFo80jaTl1iFREQ2JXUtmjtu3UEFj3bCWk0oXovB4\n0lPppDcvDwhvLIzbmV/0Rqxqq7hpQt7IhGHVav6UtYLQNMks0lzkuJNmeHv9J8MA\nU8yluWmUjPsBaTsc+Ba1nwX7M2gP1RljThCWzuNUVq5xb/o55Pq0eKHeqQKBgQCK\ncYsTcvd7QaIfmn4myWb5KMncMvwpr/g9UcekzLQeFsbfzudKvCypap7/pe45mR+e\nADmvNOdEpQiQrdWrrD0tG5ZCnYecnMXPfO4V5cydA7RO6s+ccajlEjL8vK0V4NC0\n0QxV+gYRUOsnQ75rg+NGwY47TlHZ3uJ+xNC8pi1nxQKBgGH5aSzeheJqxi1oVx06\n+vU3Cz6BKP+qHJU4CmeR2dxnirZRwMAfbnVkb0KiIBqzmhZSd4QwFJXvk6kVGNOs\nJykvtaYFBVCWyAi6an+88unZNSHwG8wak1aCjoQaKLGQaoAhVsrz4+NobsuC04kS\nCFyvgNpikqfuFFlpi9qY29H2\n-----END PRIVATE KEY-----\n",
  "client_email": "data-analyst-319914@appspot.gserviceaccount.com",
  "client_id": "113454647586739057661",
  "auth_uri": "https://accounts.google.com/o/oauth2/auth",
  "token_uri": "https://oauth2.googleapis.com/token",
  "auth_provider_x509_cert_url": "https://www.googleapis.com/oauth2/v1/certs",
  "client_x509_cert_url": "https://www.googleapis.com/robot/v1/metadata/x509/data-analyst-319914%40appspot.gserviceaccount.com"
}
